<svg xmlns="http://www.w3.org/2000/svg" xmlns:xlink="http://www.w3.org/1999/xlink" preserveAspectRatio="xMidYMid" width="28" height="39" viewBox="0 0 28 39">
  <defs>
    <style>
      .cls-1 {
        fill: #e8edea;
        filter: url(#drop-shadow-1);
        fill-rule: evenodd;
      }
    </style>

    <filter id="drop-shadow-1" filterUnits="userSpaceOnUse">
      <feOffset dy="2" in="SourceAlpha"/>
      <feGaussianBlur stdDeviation="2" result="dropBlur"/>
      <feFlood flood-opacity="0.5"/>
      <feComposite operator="in" in2="dropBlur" result="dropShadowComp"/>
      <feComposite in="SourceGraphic" result="shadowed"/>
    </filter>
  </defs>
  <path d="M19.426,4.461 L4.398,19.509 L19.422,34.533 L23.572,30.477 L12.635,19.478 L23.622,8.600 L19.426,4.461 Z" class="cls-1"/>
</svg>
